================================================================================
Running collection "tests/common-config"
2 tests collected

false-command .
wrong-false-command F

================================================================================
------ tests/common-config/wrong-false-command ---------------------------------
Invalid exit code (got 1 while expecting 0)

================================================================================
Summary: 1 passed, 1 failed
================================================================================
