------ tests/one-command/wrong-false-command -----------------------------------
Invalid exit code (got 1 while expecting 0)

================================================================================
Summary: 0 passed, 1 failed
================================================================================
